Workflow • ripeds
…
To begin, we pull only the most recent year, which we can see from
the output of the data dictionary under ../FILES: 2023.
We’ll run the default chain and add a call to
dplyr::as_tibble() at the end to covert the data.frame
output to a tibble for nicer viewing:

df <- ipeds_init() |>
  ipeds_select(latitude, longitud) |>
  ipeds_year(2023) |> 
  ipeds_get() |>
  as_tibble()

df
#> # A tibble: 6,163 × 4
#>    unitid latitude longitud  year
#>     <int>    <dbl>    <dbl> <int>
#>  1 100654     34.8    -86.6  2023
#>  2 100663     33.5    -86.8  2023
#>  3 100690     32.4    -86.2  2023
#>  4 100706     34.7    -86.6  2023
#>  5 100724     32.4    -86.3  2023
#>  6 100733     33.2    -87.5  2023
#>  7 100751     33.2    -87.5  2023
#>  8 100760     32.9    -85.9  2023
#>  9 100812     34.8    -87.0  2023
#> 10 100830     32.4    -86.2  2023
#> # ℹ 6,153 more rows
…
Pull past 10 years

Modifying the request slightly, we can request the past 10 years of
data. Most institutions don’t move, but some do and that might be
interesting!

df <- ipeds_init() |>
  ipeds_select(latitude, longitud) |>
  ipeds_year(2014:2023) |> 
  ipeds_get() |>
  as_tibble()

df
#> # A tibble: 68,572 × 4
#>    unitid latitude longitud  year
#>     <int>    <dbl>    <dbl> <int>
#>  1 100654     34.8    -86.6  2023
#>  2 100663     33.5    -86.8  2023
#>  3 100690     32.4    -86.2  2023
#>  4 100706     34.7    -86.6  2023
#>  5 100724     32.4    -86.3  2023
#>  6 100733     33.2    -87.5  2023
#>  7 100751     33.2    -87.5  2023
#>  8 100760     32.9    -85.9  2023
#>  9 100812     34.8    -87.0  2023
#> 10 100830     32.4    -86.2  2023
#> # ℹ 68,562 more rows
…
df <- ipeds_init() |>
  ipeds_select(instnm, sector, latitude, longitud) |>
  ipeds_year(2014:2023) |>
  ipeds_filter(stabbr == "KY") |> 
  ipeds_get() |>
  as_tibble()

df
#> # A tibble: 979 × 7
#>    unitid  year instnm                           sector latitude stabbr longitud
#>     <int> <int> <chr>                             <int>    <dbl> <chr>     <dbl>
#>  1 156189  2023 Alice Lloyd College                   2     37.3 KY        -82.9
#>  2 156213  2023 Asbury University                     2     37.9 KY        -84.7
#>  3 156222  2023 Asbury Theological Seminary           2     37.9 KY        -84.7
#>  4 156231  2023 Ashland Community and Technical…      4     38.5 KY        -82.7
#>  5 156286  2023 Bellarmine University                 2     38.2 KY        -85.7
#>  6 156295  2023 Berea College                         2     37.6 KY        -84.3
#>  7 156310  2023 PJ's College of Cosmetology-Bow…      9     37.0 KY        -86.5
#>  8 156338  2023 Southcentral Kentucky Community…      4     37.0 KY        -86.5
#>  9 156356  2023 Brescia University                    2     37.8 KY        -87.1
#> 10 156365  2023 Campbellsville University             2     37.3 KY        -85.3
#> # ℹ 969 more rows
…
This yields quite a few results (we’re only shown 10 of 70). However,
looking through the list, we find that efdeexc represents,
“Students enrolled exclusively in distance education courses” and covers
2011 to 2022. We’ll use this variable.

df <- ipeds_init() |>
  ipeds_select(efdeexc) |>
  ipeds_year(2022) |> 
  ipeds_get() |>
  as_tibble()

df
#> # A tibble: 22,247 × 3
#>    unitid efdeexc  year
#>     <int>   <int> <int>
#>  1 100654     429  2022
#>  2 100654     249  2022
#>  3 100654     246  2022
#>  4 100654       3  2022
#>  5 100654     180  2022
#>  6 100663    5984  2022
#>  7 100663    2436  2022
#>  8 100663    2316  2022
#>  9 100663     120  2022
#> 10 100663    3548  2022
#> # ℹ 22,237 more rows
…
Note that ripeds converts all input to lowercase, so
choosing either EFDELEV or efdelev will work.
Adding the filter, we successfully return the number of exclusively
distance education undergraduate students in 2022.

df <- ipeds_init() |>
  ipeds_select(efdeexc) |>
  ipeds_filter(efdelev == 2) |> 
  ipeds_year(2022) |> 
  ipeds_get() |>
  as_tibble()

df
#> # A tibble: 5,706 × 5
#>    unitid  year efdeexc efdelev file        
#>     <int> <int>   <int>   <int> <chr>       
#>  1 100654  2022     249       2 EF2022A_DIST
#>  2 100663  2022    2436       2 EF2022A_DIST
#>  3 100690  2022     228       2 EF2022A_DIST
#>  4 100706  2022     481       2 EF2022A_DIST
#>  5 100724  2022     133       2 EF2022A_DIST
#>  6 100751  2022    3306       2 EF2022A_DIST
#>  7 100760  2022     392       2 EF2022A_DIST
#>  8 100812  2022    1460       2 EF2022A_DIST
#>  9 100830  2022     582       2 EF2022A_DIST
#> 10 100858  2022    1094       2 EF2022A_DIST
#> # ℹ 5,696 more rows
…
